<?xml version="1.0" encoding="UTF-8" standalone="no"?>
<svg
   xmlns:dc="http://purl.org/dc/elements/1.1/"
   xmlns:cc="http://creativecommons.org/ns#"
   xmlns:rdf="http://www.w3.org/1999/02/22-rdf-syntax-ns#"
   xmlns:svg="http://www.w3.org/2000/svg"
   xmlns="http://www.w3.org/2000/svg"
   xmlns:sodipodi="http://sodipodi.sourceforge.net/DTD/sodipodi-0.dtd"
   xmlns:inkscape="http://www.inkscape.org/namespaces/inkscape"
   version="1.1"
   x="0px"
   y="0px"
   viewBox="0 0 512 640"
   style="enable-background:new 0 0 512 512;"
   xml:space="preserve"
   id="svg100"
   sodipodi:docname="automated.svg"
   inkscape:version="0.92.3 (2405546, 2018-03-11)"><metadata
     id="metadata106"><rdf:RDF><cc:Work
         rdf:about=""><dc:format>image/svg+xml</dc:format><dc:type
           rdf:resource="http://purl.org/dc/dcmitype/StillImage" /><dc:title></dc:title></cc:Work></rdf:RDF></metadata><defs
     id="defs104" /><sodipodi:namedview
     pagecolor="#ffffff"
     bordercolor="#666666"
     borderopacity="1"
     objecttolerance="10"
     gridtolerance="10"
     guidetolerance="10"
     inkscape:pageopacity="0"
     inkscape:pageshadow="2"
     inkscape:window-width="1782"
     inkscape:window-height="894"
     id="namedview102"
     showgrid="false"
     inkscape:zoom="0.36875"
     inkscape:cx="256"
     inkscape:cy="320"
     inkscape:window-x="0"
     inkscape:window-y="0"
     inkscape:window-maximized="0"
     inkscape:current-layer="svg100" /><g
     id="g94"><g
       id="g92"><g
         id="g4"><path
           d="M276,456H66c-5.523,0-10-4.478-10-10V316c0-5.522,4.477-10,10-10h160c5.523,0,10,4.478,10,10s-4.477,10-10,10H76v110h190     V316c0-5.522,4.478-10,10-10s10,4.478,10,10v130C286,451.522,281.522,456,276,456z"
           id="path2" /></g><g
         id="g8"><path
           d="M216,326H96c-3.688,0-7.077-2.03-8.817-5.281c-1.74-3.252-1.549-7.197,0.497-10.266l40-60     c3.064-4.595,9.272-5.836,13.867-2.773c4.595,3.063,5.837,9.272,2.773,13.867L114.685,306H206v-60c0-5.523,4.477-10,10-10     s10,4.477,10,10v70C226,321.522,221.523,326,216,326z"
           id="path6" /></g><g
         id="g12"><path
           d="M176,296c-27.57,0-50-22.43-50-50s22.43-50,50-50s50,22.43,50,50S203.57,296,176,296z M176,216     c-16.542,0-30,13.458-30,30s13.458,30,30,30s30-13.458,30-30S192.542,216,176,216z"
           id="path10" /></g><g
         id="g16"><path
           d="M176.03,256c-5.522,0-10.005-4.477-10.005-10s4.472-10,9.995-10h0.01c5.523,0,10,4.477,10,10S181.553,256,176.03,256z"
           id="path14" /></g><g
         id="g34"><g
           id="g20"><path
             d="M316,146H81c-5.523,0-10-4.477-10-10s4.477-10,10-10c13.785,0,25-11.215,25-25S94.785,76,81,76c-5.523,0-10-4.477-10-10      s4.477-10,10-10h100c5.523,0,10,4.477,10,10s-4.477,10-10,10h-62.6c4.797,7.155,7.6,15.757,7.6,25s-2.802,17.845-7.6,25H306V76      h-75c-5.523,0-10-4.477-10-10s4.477-10,10-10h85c5.522,0,10,4.477,10,10v70C326,141.523,321.522,146,316,146z"
             id="path18" /></g><g
           id="g24"><path
             d="M76,76.361c-2.39,0-4.719-0.857-6.549-2.443C67.259,72.019,66,69.261,66,66.361V66c0-5.523,4.477-10,10-10h5      c5.523,0,10,4.477,10,10s-4.477,10-10,10c-1.173,0-2.377,0.087-3.58,0.26C76.947,76.328,76.472,76.361,76,76.361z"
             id="path22" /></g><g
           id="g28"><path
             d="M81,146h-5c-5.523,0-10-4.477-10-10v-0.361c0-2.899,1.258-5.655,3.448-7.555c2.19-1.899,5.1-2.754,7.966-2.345      C78.626,125.912,79.832,126,81,126c5.523,0,10,4.477,10,10S86.523,146,81,146z"
             id="path26" /></g><g
           id="g32"><path
             d="M81,146c-2.111,0-4.269-0.155-6.414-0.462C52.587,142.389,36,123.242,36,101c0-22.243,16.587-41.391,38.583-44.538      C76.72,56.156,78.88,56,81,56c24.813,0,45,20.187,45,45S105.813,146,81,146z M81,76c-1.173,0-2.377,0.087-3.58,0.26      C65.207,78.007,56,88.643,56,101c0,12.356,9.208,22.992,21.417,24.74C78.626,125.912,79.832,126,81,126      c13.785,0,25-11.215,25-25S94.785,76,81,76z"
             id="path30" /></g></g><g
         id="g38"><path
           d="M136.009,266.001c-3.357,0-6.637-1.69-8.526-4.76l-80-130c-2.895-4.703-1.428-10.863,3.276-13.757     c4.702-2.895,10.862-1.429,13.757,3.276l80,130c2.895,4.703,1.428,10.863-3.276,13.757     C139.607,265.522,137.797,266.001,136.009,266.001z"
           id="path36" /></g><g
         id="g42"><path
           d="M186,216c-2.559,0-5.119-0.976-7.071-2.929l-80-80c-3.905-3.905-3.905-10.237,0-14.143s10.237-3.905,14.143,0l80,80     c3.905,3.905,3.905,10.237,0,14.143C191.119,215.024,188.559,216,186,216z"
           id="path40" /></g><g
         id="g52"><g
           id="g46"><path
             d="M351,126h-35c-5.522,0-10-4.477-10-10V86c0-5.523,4.478-10,10-10h35c3.789,0,7.253,2.142,8.946,5.531      c1.692,3.389,1.325,7.445-0.95,10.475C357.036,94.615,356,97.725,356,101s1.036,6.385,2.996,8.994      c2.275,3.03,2.643,7.085,0.95,10.475C358.253,123.858,354.789,126,351,126z M326,106h10.352c-0.233-1.643-0.352-3.312-0.352-5      s0.118-3.357,0.352-5H326V106z"
             id="path44" /></g><g
           id="g50"><path
             d="M371,136c-10.947,0-21.413-5.231-27.995-13.994C338.422,115.905,336,108.642,336,101s2.422-14.905,7.004-21.006      C349.586,71.231,360.051,66,371,66c19.299,0,35,15.701,35,35S390.299,136,371,136z M371,86c-4.763,0-9.138,2.189-12.004,6.005      C357.036,94.615,356,97.725,356,101s1.036,6.385,2.996,8.994C361.862,113.811,366.238,116,371,116c8.271,0,15-6.729,15-15      S379.271,86,371,86z"
             id="path48" /></g></g><g
         id="g56"><path
           d="M386,166h-30c-5.522,0-10-4.477-10-10v-30c0-5.523,4.478-10,10-10s10,4.477,10,10v20h10v-20c0-5.523,4.478-10,10-10     s10,4.477,10,10v30C396,161.523,391.522,166,386,166z"
           id="path54" /></g><g
         id="g60"><path
           d="M356,216c-2.56,0-5.118-0.976-7.071-2.929l-20-20c-3.37-3.371-3.894-8.652-1.249-12.618l20-30     c3.063-4.597,9.272-5.836,13.867-2.773c4.596,3.063,5.837,9.272,2.773,13.867l-15.452,23.179l14.203,14.203     c3.905,3.905,3.905,10.237,0,14.143C361.118,215.024,358.56,216,356,216z"
           id="path58" /></g><g
         id="g64"><path
           d="M386,216c-2.56,0-5.118-0.976-7.071-2.929c-3.905-3.905-3.905-10.237,0-14.143l14.203-14.203l-15.452-23.179     c-3.063-4.595-1.822-10.804,2.773-13.867c4.596-3.064,10.804-1.823,13.867,2.773l20,30c2.645,3.966,2.121,9.247-1.249,12.618     l-20,20C391.118,215.024,388.56,216,386,216z"
           id="path62" /></g><g
         id="g68"><path
           d="M486,456H26c-5.523,0-10-4.478-10-10s4.477-10,10-10h460c5.522,0,10,4.478,10,10S491.522,456,486,456z"
           id="path66" /></g><g
         id="g72"><path
           d="M226,376H66c-5.523,0-10-4.478-10-10s4.477-10,10-10h160c5.523,0,10,4.478,10,10S231.523,376,226,376z"
           id="path70" /></g><g
         id="g76"><path
           d="M316,106H156c-5.523,0-10-4.477-10-10s4.477-10,10-10h160c5.522,0,10,4.477,10,10S321.522,106,316,106z"
           id="path74" /></g><g
         id="g80"><path
           d="M446,456H276c-5.522,0-10-4.478-10-10V326h-50c-5.523,0-10-4.478-10-10v-40c0-5.522,4.477-10,10-10h100     c5.522,0,10,4.478,10,10s-4.478,10-10,10h-90v20h50c5.522,0,10,4.478,10,10v120h150V286h-70c-5.522,0-10-4.478-10-10     s4.478-10,10-10h80c5.522,0,10,4.478,10,10v170C456,451.522,451.522,456,446,456z"
           id="path78" /></g><g
         id="g84"><path
           d="M386,376h-40c-5.522,0-10-4.478-10-10v-20h-30c-5.522,0-10-4.478-10-10s4.478-10,10-10h40c5.522,0,10,4.478,10,10v20h20     v-30c0-5.522,4.478-10,10-10h60c5.522,0,10,4.478,10,10s-4.478,10-10,10h-50v30C396,371.522,391.522,376,386,376z"
           id="path82" /></g><rect
         x="96"
         y="396"
         width="20"
         height="20"
         id="rect86" /><rect
         x="136"
         y="396"
         width="20"
         height="20"
         id="rect88" /><rect
         x="176"
         y="396"
         width="20"
         height="20"
         id="rect90" /></g></g></svg>