<?xml version="1.0" encoding="UTF-8" standalone="no"?>
<svg
   xmlns:dc="http://purl.org/dc/elements/1.1/"
   xmlns:cc="http://creativecommons.org/ns#"
   xmlns:rdf="http://www.w3.org/1999/02/22-rdf-syntax-ns#"
   xmlns:svg="http://www.w3.org/2000/svg"
   xmlns="http://www.w3.org/2000/svg"
   xmlns:sodipodi="http://sodipodi.sourceforge.net/DTD/sodipodi-0.dtd"
   xmlns:inkscape="http://www.inkscape.org/namespaces/inkscape"
   version="1.1"
   x="0px"
   y="0px"
   viewBox="0 0 50 62.5"
   enable-background="new 0 0 50 50"
   xml:space="preserve"
   id="svg26"
   sodipodi:docname="mail.svg"
   inkscape:version="0.92.3 (2405546, 2018-03-11)"><metadata
     id="metadata32"><rdf:RDF><cc:Work
         rdf:about=""><dc:format>image/svg+xml</dc:format><dc:type
           rdf:resource="http://purl.org/dc/dcmitype/StillImage" /></cc:Work></rdf:RDF></metadata><defs
     id="defs30" /><sodipodi:namedview
     pagecolor="#ffffff"
     bordercolor="#666666"
     borderopacity="1"
     objecttolerance="10"
     gridtolerance="10"
     guidetolerance="10"
     inkscape:pageopacity="0"
     inkscape:pageshadow="2"
     inkscape:window-width="640"
     inkscape:window-height="480"
     id="namedview28"
     showgrid="false"
     inkscape:zoom="3.776"
     inkscape:cx="25"
     inkscape:cy="31.25"
     inkscape:window-x="0"
     inkscape:window-y="0"
     inkscape:window-maximized="0"
     inkscape:current-layer="svg26" /><g
     id="g20"><path
       d="M26.4308,1.8449c-0.83-0.68-2.03-0.68-2.86,0l-2.22,1.83h7.3L26.4308,1.8449z"
       id="path2" /><polygon
       points="5.6808,16.6149 4.1908,17.8449 5.6808,18.8848  "
       id="polygon4" /><polygon
       points="44.3108,16.6149 44.3108,18.9448 45.8408,17.8749  "
       id="polygon6" /><polygon
       points="2.9508,18.8049 2.9508,46.6448 21.1508,31.5249  "
       id="polygon8" /><polygon
       points="47.0408,46.6348 47.0408,18.8649 28.8508,31.5349  "
       id="polygon10" /><path
       d="M26.51,31.545c-0.8799-0.73-2.16-0.73-3.04,0L2.86,48.6651h44.28L26.51,31.545z"
       id="path12" /><polygon
       points="33.1905,5.1724 33.1905,14.8058 42.8142,14.8058  "
       id="polygon14" /><path
       d="M21.8356,17.7875c-0.9719,1.1307-0.9504,2.9664-0.0095,4.1635c0.9638,1.2286,2.9213,1.1922,3.8618,0.0189   c0.4723-0.5883,0.7084-1.2999,0.7084-2.1346c0-0.8347-0.2456-1.5234-0.7376-2.0675   C24.6785,16.6853,22.8127,16.6524,21.8356,17.7875z"
       id="path16" /><path
       d="M22.5108,30.3948c2.5948-2.15,5.0399,0.1137,5.14,0.15l15.16-10.56v-3.68h-11.12v-11.13h-22.77   c-0.96,0-1.74,0.78-1.74,1.74v13.02l15.16,10.6L22.5108,30.3948z M18.5361,14.3229c3.0941-3.1067,8.0775-3.1178,11.0918,0   c2.6432,2.7355,2.7213,6.9763,1.446,9.0448c-1.0235,1.6586-2.8346,1.5593-3.6296,0.6405   c-0.3751-0.4336-0.5757-1.0511-0.6018-1.8535c-1.3479,3.106-4.5289,3.1513-6.4142,1.1641   c-1.7656-1.8594-1.6269-5.0418-0.0679-6.8509c1.8072-2.0989,5.0157-1.6617,6.017,0.1745v-1.3007h1.863v6.7735   c0,1.5772,1.3828,1.8683,2.1639,0.4762c0.8581-1.5315,0.7687-5.1105-1.3781-7.579c-2.5514-2.9355-7.1246-2.8228-9.8693-0.0782   c-2.8785,2.8802-2.6544,7.2919-0.1161,9.7919c2.6685,2.6282,6.7977,2.2901,8.4233,0.7668l0.4272,0.7178   c-1.9826,1.6994-6.4915,2.0585-9.4618-0.8734C15.5377,22.4844,15.372,17.5001,18.5361,14.3229z"
       id="path18" /></g></svg>