<?xml version="1.0" encoding="UTF-8" standalone="no"?>
<svg
   xmlns:dc="http://purl.org/dc/elements/1.1/"
   xmlns:cc="http://creativecommons.org/ns#"
   xmlns:rdf="http://www.w3.org/1999/02/22-rdf-syntax-ns#"
   xmlns:svg="http://www.w3.org/2000/svg"
   xmlns="http://www.w3.org/2000/svg"
   xmlns:sodipodi="http://sodipodi.sourceforge.net/DTD/sodipodi-0.dtd"
   xmlns:inkscape="http://www.inkscape.org/namespaces/inkscape"
   version="1.1"
   x="0px"
   y="0px"
   viewBox="0 0 160 200"
   style="enable-background:new 0 0 160 160;"
   xml:space="preserve"
   id="svg30"
   sodipodi:docname="newsletter.svg"
   inkscape:version="0.92.3 (2405546, 2018-03-11)"><metadata
     id="metadata36"><rdf:RDF><cc:Work
         rdf:about=""><dc:format>image/svg+xml</dc:format><dc:type
           rdf:resource="http://purl.org/dc/dcmitype/StillImage" /></cc:Work></rdf:RDF></metadata><defs
     id="defs34" /><sodipodi:namedview
     pagecolor="#ffffff"
     bordercolor="#666666"
     borderopacity="1"
     objecttolerance="10"
     gridtolerance="10"
     guidetolerance="10"
     inkscape:pageopacity="0"
     inkscape:pageshadow="2"
     inkscape:window-width="640"
     inkscape:window-height="480"
     id="namedview32"
     showgrid="false"
     inkscape:zoom="1.18"
     inkscape:cx="80"
     inkscape:cy="100"
     inkscape:window-x="0"
     inkscape:window-y="0"
     inkscape:window-maximized="0"
     inkscape:current-layer="svg30" /><g
     id="g24"><path
       d="M77.926,13.284c0.61-0.429,1.342-0.643,2.074-0.643s1.464,0.215,2.075,0.643l2.096,1.47h12.074L86.058,7.607   c-3.623-2.541-8.492-2.543-12.115,0l-10.188,7.147H75.83L77.926,13.284z"
       id="path2" /><path
       d="M150.668,52.937l-9.507-6.67v8.471l4.335,3.041L80,103.73L14.504,57.779l4.335-3.042v-8.471l-9.507,6.67   C6.619,54.839,5,57.925,5,61.19v82.95c0,5.601,4.66,10.159,10.389,10.159h129.222c5.729,0,10.389-4.558,10.389-10.159V61.19   C155,57.925,153.381,54.839,150.668,52.937z M11.935,144.141V64.448l118.188,82.917H15.389   C13.484,147.365,11.935,145.919,11.935,144.141z M144.611,147.365h-2.415l-56.159-39.4l62.029-43.519v79.694   C148.065,145.919,146.516,147.365,144.611,147.365z"
       id="path4" /><path
       d="M98.822,41.012c1.368,0,2.477-1.109,2.477-2.477s-1.109-2.477-2.477-2.477H59.692c-1.368,0-2.477,1.109-2.477,2.477   s1.109,2.477,2.477,2.477H98.822z"
       id="path6" /><path
       d="M29.241,25.156h101.518v38.727l6.935-4.865V21.689c0-1.915-1.553-3.467-3.467-3.467H25.774   c-1.915,0-3.467,1.553-3.467,3.467v37.329l6.935,4.865V25.156z"
       id="path8" /><path
       d="M48.686,77.527l7.063,4.953h18.307c1.367,0,2.477-1.109,2.477-2.477V52.077c0-1.367-1.11-2.477-2.477-2.477H39.948   c-1.367,0-2.477,1.11-2.477,2.477v17.584l4.953,3.467V54.554h29.155v22.973H48.686z"
       id="path10" /><path
       d="M120.357,49.598H85.944c-1.368,0-2.477,1.109-2.477,2.477s1.109,2.477,2.477,2.477h34.413c1.368,0,2.477-1.109,2.477-2.477   S121.725,49.598,120.357,49.598z"
       id="path12" /><path
       d="M120.357,58.906H85.944c-1.368,0-2.477,1.109-2.477,2.477c0,1.368,1.109,2.477,2.477,2.477h34.413   c1.368,0,2.477-1.109,2.477-2.477C122.834,60.015,121.725,58.906,120.357,58.906z"
       id="path14" /><path
       d="M122.581,69.621c-0.121-0.25-0.275-0.481-0.468-0.676c-0.448-0.451-1.069-0.73-1.755-0.73H85.944   c-0.865,0-1.624,0.445-2.067,1.117c-0.257,0.391-0.409,0.857-0.409,1.36c0,1.368,1.109,2.477,2.477,2.477h31.58L122.581,69.621z"
       id="path16" /><path
       d="M111.315,77.524H85.944c-1.368,0-2.477,1.109-2.477,2.477c0,1.368,1.109,2.477,2.477,2.477h18.312L111.315,77.524z"
       id="path18" /><polygon
       points="85.228,95.827 74.773,95.827 80,99.495  "
       id="polygon20" /><polygon
       points="97.936,86.911 62.064,86.911 69.125,91.865 90.876,91.865  "
       id="polygon22" /></g></svg>