<?xml version="1.0" encoding="UTF-8" standalone="no"?>
<svg
   xmlns:dc="http://purl.org/dc/elements/1.1/"
   xmlns:cc="http://creativecommons.org/ns#"
   xmlns:rdf="http://www.w3.org/1999/02/22-rdf-syntax-ns#"
   xmlns:svg="http://www.w3.org/2000/svg"
   xmlns="http://www.w3.org/2000/svg"
   xmlns:sodipodi="http://sodipodi.sourceforge.net/DTD/sodipodi-0.dtd"
   xmlns:inkscape="http://www.inkscape.org/namespaces/inkscape"
   version="1.1"
   x="0px"
   y="0px"
   viewBox="0 0 60 75"
   style="enable-background:new 0 0 60 60;"
   xml:space="preserve"
   id="svg12"
   sodipodi:docname="temporaryfilesharing.svg"
   inkscape:version="0.92.3 (2405546, 2018-03-11)"><metadata
     id="metadata18"><rdf:RDF><cc:Work
         rdf:about=""><dc:format>image/svg+xml</dc:format><dc:type
           rdf:resource="http://purl.org/dc/dcmitype/StillImage" /></cc:Work></rdf:RDF></metadata><defs
     id="defs16" /><sodipodi:namedview
     pagecolor="#ffffff"
     bordercolor="#666666"
     borderopacity="1"
     objecttolerance="10"
     gridtolerance="10"
     guidetolerance="10"
     inkscape:pageopacity="0"
     inkscape:pageshadow="2"
     inkscape:window-width="640"
     inkscape:window-height="480"
     id="namedview14"
     showgrid="false"
     inkscape:zoom="3.1466667"
     inkscape:cx="30"
     inkscape:cy="37.5"
     inkscape:window-x="0"
     inkscape:window-y="0"
     inkscape:window-maximized="0"
     inkscape:current-layer="svg12" /><g
     id="g6"><path
       d="M47.8,6h-21v12.6c0,1.7-1.4,3-3,3H11.2V53c0,0.5,0.5,1,1,1h35.6c0.5,0,1-0.5,1-1V7C48.8,6.5,48.4,6,47.8,6z M28.3,34   c0,0.5-0.1,1.1-0.3,1.5l6.4,2.8c0.8-1.1,2.1-1.8,3.6-1.8c2.5,0,4.5,2,4.5,4.5c0,2.5-2,4.5-4.5,4.5s-4.5-2-4.5-4.5   c0-0.3,0-0.5,0.1-0.8l-6.5-2.8c-1,1.2-2.5,2.1-4.2,2.1c-3,0-5.4-2.4-5.4-5.4s2.4-5.4,5.4-5.4c1.7,0,3.2,0.8,4.2,2.1l6.5-2.8   c0-0.3-0.1-0.5-0.1-0.8c0-2.5,2-4.5,4.5-4.5s4.5,2,4.5,4.5s-2,4.5-4.5,4.5c-1.5,0-2.7-0.7-3.6-1.8l-6.4,2.8   C28.2,33,28.3,33.5,28.3,34z"
       id="path2" /><path
       d="M12.2,19.6h11.6c0.5,0,1-0.4,1-1V7c0-0.4-0.3-0.8-0.6-0.9c-0.4-0.2-0.8-0.1-1.1,0.2L11.5,17.9c-0.3,0.3-0.4,0.7-0.2,1.1   C11.4,19.3,11.8,19.6,12.2,19.6z"
       id="path4" /></g></svg>